Tópico 2 - Importação de dados
…
mutate(): cria novas colunas da base de dados (ou
atualiza as colunas existentes)

group_by() + summarise(): agrupa e
sumariza da base de dados

count(): faz uma contagem por grupos

Já vimos que podemos filtar os dados da seguinte forma: no exemplo a
seguir buscamos as linhas onde o ano seja igual à 2010.

filter(dados_pnud, ano == 2010)

## # A tibble: 5,562 × 15
##      ano muni_id muni_nm   uf_sigla regiao_nm  idhm idhm_e idhm_l idhm_r espvida
##    <dbl>   <dbl> <chr>     <chr>    <chr>     <dbl>  <dbl>  <dbl>  <dbl>   <dbl>
##  1  2010 1100015 ALTA FLO… RO       Norte     0.641  0.526  0.763  0.657    70.8
##  2  2010 1100023 ARIQUEMES RO       Norte     0.702  0.6    0.806  0.716    73.4
##  3  2010 1100031 CABIXI    RO       Norte     0.65   0.559  0.757  0.65     70.4
##  4  2010 1100049 CACOAL    RO       Norte     0.718  0.62   0.821  0.727    74.3
##  5  2010 1100056 CEREJEIR… RO       Norte     0.692  0.602  0.799  0.688    72.9
##  6  2010 1100064 COLORADO… RO       Norte     0.685  0.584  0.814  0.676    73.8
##  7  2010 1100072 CORUMBIA… RO       Norte     0.613  0.473  0.774  0.63     71.4
##  8  2010 1100080 COSTA MA… RO       Norte     0.611  0.493  0.751  0.616    70.0
##  9  2010 1100098 ESPIGÃO … RO       Norte     0.672  0.536  0.819  0.691    74.2
## 10  2010 1100106 GUAJARÁ-… RO       Norte     0.657  0.519  0.823  0.663    74.4
## # … with 5,552 more rows, and 5 more variables: rdpc <dbl>, gini <dbl>,
## #   pop <dbl>, lat <dbl>, lon <dbl>

Podemos reescrever esse código desta forma, usando o pipe, que é
usado para criar sequências de códigos:

dados_pnud |> 
  filter(ano == 2010)

## # A tibble: 5,562 × 15
##      ano muni_id muni_nm   uf_sigla regiao_nm  idhm idhm_e idhm_l idhm_r espvida
##    <dbl>   <dbl> <chr>     <chr>    <chr>     <dbl>  <dbl>  <dbl>  <dbl>   <dbl>
##  1  2010 1100015 ALTA FLO… RO       Norte     0.641  0.526  0.763  0.657    70.8
##  2  2010 1100023 ARIQUEMES RO       Norte     0.702  0.6    0.806  0.716    73.4
##  3  2010 1100031 CABIXI    RO       Norte     0.65   0.559  0.757  0.65     70.4
##  4  2010 1100049 CACOAL    RO       Norte     0.718  0.62   0.821  0.727    74.3
##  5  2010 1100056 CEREJEIR… RO       Norte     0.692  0.602  0.799  0.688    72.9
##  6  2010 1100064 COLORADO… RO       Norte     0.685  0.584  0.814  0.676    73.8
##  7  2010 1100072 CORUMBIA… RO       Norte     0.613  0.473  0.774  0.63     71.4
##  8  2010 1100080 COSTA MA… RO       Norte     0.611  0.493  0.751  0.616    70.0
##  9  2010 1100098 ESPIGÃO … RO       Norte     0.672  0.536  0.819  0.691    74.2
## 10  2010 1100106 GUAJARÁ-… RO       Norte     0.657  0.519  0.823  0.663    74.4
## # … with 5,552 more rows, and 5 more variables: rdpc <dbl>, gini <dbl>,
## #   pop <dbl>, lat <dbl>, lon <dbl>

Vamos ver o pipe em outro exemplo! O que você acha que a função
abaixo fez? Execute e veja o resultado. Pode escrever com as suas
palavras :)

SUA INTERPRETAÇÃO: …

dados_pnud_2010 |> 
  count(uf_sigla)

## # A tibble: 27 × 2
##    uf_sigla     n
##    <chr>    <int>
##  1 AC          22
##  2 AL         102
##  3 AM          62
##  4 AP          16
##  5 BA         417
##  6 CE         184
##  7 DF           1
##  8 ES          78
##  9 GO         245
## 10 MA         217
## # … with 17 more rows
…
## # A tibble: 5 × 2
##   regiao_nm        n
##   <chr>        <int>
## 1 Norte          449
## 2 Centro-Oeste   465
## 3 Sul           1187
## 4 Sudeste       1667
## 5 Nordeste      1794

SUA INTERPRETAÇÃO: …

dados_pnud_2010 |> 
  select(muni_nm, uf_sigla, pop)

## # A tibble: 5,562 × 3
##    muni_nm               uf_sigla   pop
##    <chr>                 <chr>    <dbl>
##  1 ALTA FLORESTA D'OESTE RO       22429
##  2 ARIQUEMES             RO       88730
##  3 CABIXI                RO        6156
##  4 CACOAL                RO       76876
##  5 CEREJEIRAS            RO       16815
##  6 COLORADO DO OESTE     RO       18204
##  7 CORUMBIARA            RO        8397
##  8 COSTA MARQUES         RO       13246
##  9 ESPIGÃO D'OESTE       RO       27791
## 10 GUAJARÁ-MIRIM         RO       38203
## # … with 5,552 more rows
…
