Base de dados
…
Qual é a escola de ensino médio com a maior e a menor taxa de aprovação no seu estado no ano mais recente com dados disponíveis?

ex1 <-  escolas_df |> 
  tidyr::drop_na(taxa_aprovacao) |> 
  dplyr::filter(sigla_uf == "SP", ano == max(ano), ensino == "medio") 

ex1 |> dplyr::arrange(taxa_aprovacao)

# A tibble: 3,917 × 14
     ano sigla_uf id_municipio id_escola rede     ensino anos_escolares
   <int> <chr>    <chr>        <chr>     <chr>    <chr>  <chr>         
 1  2019 SP       3550308      35002800  estadual medio  todos (1-4)   
 2  2019 SP       3547809      35925640  estadual medio  todos (1-4)   
 3  2019 SP       3506003      35565696  estadual medio  todos (1-4)   
 4  2019 SP       3550308      35916523  estadual medio  todos (1-4)   
 5  2019 SP       3550308      35002719  estadual medio  todos (1-4)   
 6  2019 SP       3543402      35041531  estadual medio  todos (1-4)   
 7  2019 SP       3518404      35012683  estadual medio  todos (1-4)   
 8  2019 SP       3550308      35910776  estadual medio  todos (1-4)   
 9  2019 SP       3550308      35924374  estadual medio  todos (1-4)   
10  2019 SP       3550308      35910995  estadual medio  todos (1-4)   
# … with 3,907 more rows, and 7 more variables: taxa_aprovacao <dbl>,
#   indicador_rendimento <dbl>, nota_saeb_matematica <dbl>,
#   nota_saeb_lingua_portuguesa <dbl>, nota_saeb_media_padronizada <dbl>,
#   ideb <dbl>, projecao <dbl>

escolas_df |> 
  dplyr::count(sigla_uf, ano, ensino, rede)

# A tibble: 954 × 5
   sigla_uf   ano ensino      rede          n
   <chr>    <int> <chr>       <chr>     <int>
 1 AC        2005 fundamental estadual    320
 2 AC        2005 fundamental federal       2
 3 AC        2005 fundamental municipal   221
 4 AC        2007 fundamental estadual    320
 5 AC        2007 fundamental federal       2
 6 AC        2007 fundamental municipal   221
 7 AC        2009 fundamental estadual    320
 8 AC        2009 fundamental federal       2
 9 AC        2009 fundamental municipal   221
10 AC        2011 fundamental estadual    320
# … with 944 more rows
