Tópico 2 - Importação de dados
…
http://orcamento.sf.prefeitura.sp.gov.br/orcamento/execucao.php

CTRL + SHIFT + C - comentar trecho de codigo

library(readxl)
# url <- "http://orcamento.sf.prefeitura.sp.gov.br/orcamento/uploads/2022/basedadosexecucao2022.xlsx"
destfile <- "dados/basedadosexecucao2022.xlsx"
# curl::curl_download(url, destfile)
basedadosexecucao2022 <- read_excel(destfile)

# limpa os nomes de todas as colunas!! é do pacote janitor
clean_names(basedadosexecucao2022)

## # A tibble: 5,087 × 48
##    data_inicial        data_final          cd_ano_execucao cd_exercicio
##    <dttm>              <dttm>                        <dbl>        <dbl>
##  1 2022-01-01 00:00:00 2022-05-31 23:59:59            2022         2022
##  2 2022-01-01 00:00:00 2022-05-31 23:59:59            2022         2022
##  3 2022-01-01 00:00:00 2022-05-31 23:59:59            2022         2022
##  4 2022-01-01 00:00:00 2022-05-31 23:59:59            2022         2022
##  5 2022-01-01 00:00:00 2022-05-31 23:59:59            2022         2022
##  6 2022-01-01 00:00:00 2022-05-31 23:59:59            2022         2022
##  7 2022-01-01 00:00:00 2022-05-31 23:59:59            2022         2022
##  8 2022-01-01 00:00:00 2022-05-31 23:59:59            2022         2022
##  9 2022-01-01 00:00:00 2022-05-31 23:59:59            2022         2022
## 10 2022-01-01 00:00:00 2022-05-31 23:59:59            2022         2022
## # … with 5,077 more rows, and 44 more variables: administracao <chr>,
## #   cd_orgao <chr>, sigla_orgao <chr>, ds_orgao <chr>, cd_unidade <chr>,
## #   ds_unidade <chr>, cd_funcao <chr>, ds_funcao <chr>, cd_sub_funcao <chr>,
## #   ds_sub_funcao <chr>, cd_programa <chr>, ds_programa <chr>, pa <chr>,
## #   papa <chr>, projeto_atividade <chr>, ds_projeto_atividade <chr>,
## #   cd_despesa <chr>, ds_despesa <chr>, categoria_despesa <chr>,
## #   ds_categoria <chr>, grupo_despesa <chr>, ds_grupo <chr>, …
…
