Tópico 3 - Manipulação de dados com dplyr
…
Sintaxe: select(nome_da_base, regras_para_selecionar_colunas)

Selecionando uma coluna:

nome_municipios <- select(dados_pnud, muni_nm)

Obs: Enquanto a gente não usar a atribuição <-, o
objeto não é alterado!

Selecionando várias colunas:

select(dados_pnud, muni_nm, uf_sigla)

## # A tibble: 16,686 × 2
##    muni_nm               uf_sigla
##    <chr>                 <chr>   
##  1 ALTA FLORESTA D'OESTE RO      
##  2 ARIQUEMES             RO      
##  3 CABIXI                RO      
##  4 CACOAL                RO      
##  5 CEREJEIRAS            RO      
##  6 COLORADO DO OESTE     RO      
##  7 CORUMBIARA            RO      
##  8 COSTA MARQUES         RO      
##  9 ESPIGÃO D'OESTE       RO      
## 10 GUAJARÁ-MIRIM         RO      
## # … with 16,676 more rows

A função select respeita a ordem das colunas:

select(dados_pnud, uf_sigla, muni_nm, pop)

## # A tibble: 16,686 × 3
##    uf_sigla muni_nm                 pop
##    <chr>    <chr>                 <dbl>
##  1 RO       ALTA FLORESTA D'OESTE 22835
##  2 RO       ARIQUEMES             55018
##  3 RO       CABIXI                 5846
##  4 RO       CACOAL                66534
##  5 RO       CEREJEIRAS            19030
##  6 RO       COLORADO DO OESTE     25070
##  7 RO       CORUMBIARA            10737
##  8 RO       COSTA MARQUES          6902
##  9 RO       ESPIGÃO D'OESTE       22505
## 10 RO       GUAJARÁ-MIRIM         31240
## # … with 16,676 more rows

O operador : pode ser usado aqui para selecionar uma
sequência de colunas:

select(dados_pnud, idhm:pop)

## # A tibble: 16,686 × 8
##     idhm idhm_e idhm_l idhm_r espvida  rdpc  gini   pop
##    <dbl>  <dbl>  <dbl>  <dbl>   <dbl> <dbl> <dbl> <dbl>
##  1 0.329  0.112  0.617  0.516    62.0 198.   0.63 22835
##  2 0.432  0.199  0.684  0.593    66.0 319.   0.57 55018
##  3 0.309  0.108  0.636  0.43     63.2 116.   0.7   5846
##  4 0.407  0.171  0.667  0.593    65.0 320.   0.66 66534
##  5 0.386  0.167  0.629  0.547    62.7 240.   0.6  19030
##  6 0.376  0.151  0.658  0.536    64.5 225.   0.62 25070
##  7 0.203  0.039  0.572  0.373    59.3  81.4  0.59 10737
##  8 0.425  0.22   0.629  0.553    62.8 250.   0.65  6902
##  9 0.388  0.159  0.653  0.561    64.2 263.   0.63 22505
## 10 0.468  0.247  0.662  0.625    64.7 391.   0.6  31240
## # … with 16,676 more rows

Podemos selecionar colunas por exclusão:

select(dados_pnud, -lat, -lon)

## # A tibble: 16,686 × 13
##      ano muni_id muni_nm   uf_sigla regiao_nm  idhm idhm_e idhm_l idhm_r espvida
##    <dbl>   <dbl> <chr>     <chr>    <chr>     <dbl>  <dbl>  <dbl>  <dbl>   <dbl>
##  1  1991 1100015 ALTA FLO… RO       Norte     0.329  0.112  0.617  0.516    62.0
##  2  1991 1100023 ARIQUEMES RO       Norte     0.432  0.199  0.684  0.593    66.0
##  3  1991 1100031 CABIXI    RO       Norte     0.309  0.108  0.636  0.43     63.2
##  4  1991 1100049 CACOAL    RO       Norte     0.407  0.171  0.667  0.593    65.0
##  5  1991 1100056 CEREJEIR… RO       Norte     0.386  0.167  0.629  0.547    62.7
##  6  1991 1100064 COLORADO… RO       Norte     0.376  0.151  0.658  0.536    64.5
##  7  1991 1100072 CORUMBIA… RO       Norte     0.203  0.039  0.572  0.373    59.3
##  8  1991 1100080 COSTA MA… RO       Norte     0.425  0.22   0.629  0.553    62.8
##  9  1991 1100098 ESPIGÃO … RO       Norte     0.388  0.159  0.653  0.561    64.2
## 10  1991 1100106 GUAJARÁ-… RO       Norte     0.468  0.247  0.662  0.625    64.7
## # … with 16,676 more rows, and 3 more variables: rdpc <dbl>, gini <dbl>,
## #   pop <dbl>

Selecione todas as colunas que comecem com idhm:

# resposta da Mariana
select(dados_pnud, idhm:idhm_r)

## # A tibble: 16,686 × 4
##     idhm idhm_e idhm_l idhm_r
##    <dbl>  <dbl>  <dbl>  <dbl>
##  1 0.329  0.112  0.617  0.516
##  2 0.432  0.199  0.684  0.593
##  3 0.309  0.108  0.636  0.43 
##  4 0.407  0.171  0.667  0.593
##  5 0.386  0.167  0.629  0.547
##  6 0.376  0.151  0.658  0.536
##  7 0.203  0.039  0.572  0.373
##  8 0.425  0.22   0.629  0.553
##  9 0.388  0.159  0.653  0.561
## 10 0.468  0.247  0.662  0.625
## # … with 16,676 more rows

# busca padrão no começo do nome da coluna
select(dados_pnud, starts_with("idhm"))

## # A tibble: 16,686 × 4
##     idhm idhm_e idhm_l idhm_r
##    <dbl>  <dbl>  <dbl>  <dbl>
##  1 0.329  0.112  0.617  0.516
##  2 0.432  0.199  0.684  0.593
##  3 0.309  0.108  0.636  0.43 
##  4 0.407  0.171  0.667  0.593
##  5 0.386  0.167  0.629  0.547
##  6 0.376  0.151  0.658  0.536
##  7 0.203  0.039  0.572  0.373
##  8 0.425  0.22   0.629  0.553
##  9 0.388  0.159  0.653  0.561
## 10 0.468  0.247  0.662  0.625
## # … with 16,676 more rows

# busca padrão em qualquer lugar no nome da coluna
select(dados_pnud, contains("idhm"))

## # A tibble: 16,686 × 4
##     idhm idhm_e idhm_l idhm_r
##    <dbl>  <dbl>  <dbl>  <dbl>
##  1 0.329  0.112  0.617  0.516
##  2 0.432  0.199  0.684  0.593
##  3 0.309  0.108  0.636  0.43 
##  4 0.407  0.171  0.667  0.593
##  5 0.386  0.167  0.629  0.547
##  6 0.376  0.151  0.658  0.536
##  7 0.203  0.039  0.572  0.373
##  8 0.425  0.22   0.629  0.553
##  9 0.388  0.159  0.653  0.561
## 10 0.468  0.247  0.662  0.625
## # … with 16,676 more rows

# busca padrao no final do nome da coluna
select(dados_pnud, ends_with("nm"))

## # A tibble: 16,686 × 2
##    muni_nm               regiao_nm
##    <chr>                 <chr>    
##  1 ALTA FLORESTA D'OESTE Norte    
##  2 ARIQUEMES             Norte    
##  3 CABIXI                Norte    
##  4 CACOAL                Norte    
##  5 CEREJEIRAS            Norte    
##  6 COLORADO DO OESTE     Norte    
##  7 CORUMBIARA            Norte    
##  8 COSTA MARQUES         Norte    
##  9 ESPIGÃO D'OESTE       Norte    
## 10 GUAJARÁ-MIRIM         Norte    
## # … with 16,676 more rows
…
COLORADO DO OESTE
Norte

arrange

Podemos ordenar a base de dados com a função
arrange().

Sintaxe: arrange(nome_da_base, coluna_para_usar_para_ordenar)

O padrão de ordenação é crescente:

arrange(dados_pnud, pop)

## # A tibble: 16,686 × 15
##      ano muni_id muni_nm   uf_sigla regiao_nm  idhm idhm_e idhm_l idhm_r espvida
##    <dbl>   <dbl> <chr>     <chr>    <chr>     <dbl>  <dbl>  <dbl>  <dbl>   <dbl>
##  1  1991 5107743 SANTA CR… MT       Centro-O… 0.397  0.138  0.708  0.642    67.5
##  2  1991 5108303 UNIÃO DO… MT       Centro-O… 0.309  0.06   0.698  0.705    66.8
##  3  1991 1100452 BURITIS   RO       Norte     0.325  0.113  0.638  0.474    63.3
##  4  1991 5107875 SAPEZAL   MT       Centro-O… 0.341  0.077  0.78   0.663    71.8
##  5  1991 1720150 SÃO FÉLI… TO       Norte     0.294  0.137  0.512  0.362    55.7
##  6  1991 5102686 CAMPOS D… MT       Centro-O… 0.46   0.226  0.713  0.604    67.8
##  7  1991 3507209 BORÁ      SP       Sudeste   0.506  0.307  0.76   0.555    70.6
##  8  1991 5212253 LAGOA SA… GO       Centro-O… 0.382  0.141  0.718  0.551    68.1
##  9  2000 5212253 LAGOA SA… GO       Centro-O… 0.559  0.366  0.815  0.585    73.9
## 10  2000 3507209 BORÁ      SP       Sudeste   0.649  0.527  0.794  0.652    72.6
## # … with 16,676 more rows, and 5 more variables: rdpc <dbl>, gini <dbl>,
## #   pop <dbl>, lat <dbl>, lon <dbl>

Para ordenar de forma decrescente, podemos usar a função
desc():

arrange(dados_pnud, desc(pop))

## # A tibble: 16,686 × 15
##      ano muni_id muni_nm   uf_sigla regiao_nm  idhm idhm_e idhm_l idhm_r espvida
##    <dbl>   <dbl> <chr>     <chr>    <chr>     <dbl>  <dbl>  <dbl>  <dbl>   <dbl>
##  1  2010 3550308 SÃO PAULO SP       Sudeste   0.805  0.725  0.855  0.843    76.3
##  2  2000 3550308 SÃO PAULO SP       Sudeste   0.733  0.614  0.796  0.807    72.8
##  3  1991 3550308 SÃO PAULO SP       Sudeste   0.626  0.421  0.742  0.784    69.5
##  4  2010 3304557 RIO DE J… RJ       Sudeste   0.799  0.719  0.845  0.84     75.7
##  5  2000 3304557 RIO DE J… RJ       Sudeste   0.716  0.607  0.754  0.803    70.3
##  6  1991 3304557 RIO DE J… RJ       Sudeste   0.639  0.483  0.714  0.757    67.8
##  7  2010 2927408 SALVADOR  BA       Nordeste  0.759  0.679  0.835  0.772    75.1
##  8  2010 5300108 BRASÍLIA  DF       Centro-O… 0.824  0.742  0.873  0.863    77.4
##  9  2010 2304400 FORTALEZA CE       Nordeste  0.754  0.695  0.824  0.749    74.4
## 10  2000 2927408 SALVADOR  BA       Nordeste  0.654  0.525  0.744  0.715    69.6
## # … with 16,676 more rows, and 5 more variables: rdpc <dbl>, gini <dbl>,
## #   pop <dbl>, lat <dbl>, lon <dbl>

Podemos ordenar de acordo com os valores de duas colunas:

arrange(dados_pnud, ano, desc(pop))

## # A tibble: 16,686 × 15
##      ano muni_id muni_nm   uf_sigla regiao_nm  idhm idhm_e idhm_l idhm_r espvida
##    <dbl>   <dbl> <chr>     <chr>    <chr>     <dbl>  <dbl>  <dbl>  <dbl>   <dbl>
##  1  1991 3550308 SÃO PAULO SP       Sudeste   0.626  0.421  0.742  0.784    69.5
##  2  1991 3304557 RIO DE J… RJ       Sudeste   0.639  0.483  0.714  0.757    67.8
##  3  1991 2927408 SALVADOR  BA       Nordeste  0.563  0.383  0.679  0.686    65.7
##  4  1991 3106200 Belo Hor… MG       Sudeste   0.602  0.406  0.727  0.74     68.6
##  5  1991 2304400 FORTALEZA CE       Nordeste  0.546  0.367  0.683  0.65     66.0
##  6  1991 5300108 BRASÍLIA  DF       Centro-O… 0.616  0.419  0.731  0.762    68.9
##  7  1991 4106902 CURITIBA  PR       Sul       0.64   0.476  0.728  0.755    68.7
##  8  1991 2611606 RECIFE    PE       Nordeste  0.576  0.409  0.676  0.692    65.6
##  9  1991 4314902 PORTO AL… RS       Sul       0.66   0.494  0.748  0.779    69.9
## 10  1991 1501402 BELÉM     PA       Norte     0.562  0.371  0.71   0.674    67.6
## # … with 16,676 more rows, and 5 more variables: rdpc <dbl>, gini <dbl>,
## #   pop <dbl>, lat <dbl>, lon <dbl>

A ordenação de textos segue a ordem alfabética:

arrange(dados_pnud, muni_nm)

## # A tibble: 16,686 × 15
##      ano muni_id muni_nm   uf_sigla regiao_nm  idhm idhm_e idhm_l idhm_r espvida
##    <dbl>   <dbl> <chr>     <chr>    <chr>     <dbl>  <dbl>  <dbl>  <dbl>   <dbl>
##  1  1991 5200050 ABADIA D… GO       Centro-O… 0.408  0.183  0.658  0.563    64.5
##  2  2000 5200050 ABADIA D… GO       Centro-O… 0.569  0.386  0.765  0.623    70.9
##  3  2010 5200050 ABADIA D… GO       Centro-O… 0.708  0.622  0.83   0.687    74.8
##  4  1991 3100104 Abadia d… MG       Sudeste   0.449  0.225  0.728  0.551    68.7
##  5  2000 3100104 Abadia d… MG       Sudeste   0.575  0.387  0.799  0.616    72.9
##  6  2010 3100104 Abadia d… MG       Sudeste   0.689  0.563  0.839  0.693    75.4
##  7  1991 5200100 ABADIÂNIA GO       Centro-O… 0.41   0.188  0.656  0.56     64.4
##  8  2000 5200100 ABADIÂNIA GO       Centro-O… 0.503  0.292  0.73   0.598    68.8
##  9  2010 5200100 ABADIÂNIA GO       Centro-O… 0.689  0.579  0.841  0.671    75.5
## 10  1991 3100203 Abaeté    MG       Sudeste   0.417  0.18   0.717  0.561    68.0
## # … with 16,676 more rows, and 5 more variables: rdpc <dbl>, gini <dbl>,
## #   pop <dbl>, lat <dbl>, lon <dbl>

Exercício: colunas: ano, uf, nome do municipio, gini ordenacao: ano
descente (2010, 2000, 1991) e gini crescente (os muni com menores
inidices primeiro)

# jeito 1
tabela_pnud <- select(dados_pnud, ano, uf_sigla, muni_nm, gini)
arrange(tabela_pnud, desc(ano), gini)

## # A tibble: 16,686 × 4
##      ano uf_sigla muni_nm                gini
##    <dbl> <chr>    <chr>                 <dbl>
##  1  2010 SC       BOTUVERÁ               0.28
##  2  2010 RS       SÃO JOSÉ DO HORTÊNCIO  0.28
##  3  2010 RS       ALTO FELIZ             0.29
##  4  2010 RS       SÃO VENDELINO          0.29
##  5  2010 RS       VALE REAL              0.29
##  6  2010 RS       SANTA MARIA DO HERVAL  0.3 
##  7  2010 RS       CAMPESTRE DA SERRA     0.31
##  8  2010 RS       TUPANDI                0.31
##  9  2010 MG       Córrego Fundo          0.32
## 10  2010 SC       SANTA ROSA DE LIMA     0.32
## # … with 16,676 more rows

# jeito 2
arrange(select(dados_pnud, ano, uf_sigla, muni_nm, gini),
        desc(ano), gini)

## # A tibble: 16,686 × 4
##      ano uf_sigla muni_nm                gini
##    <dbl> <chr>    <chr>                 <dbl>
##  1  2010 SC       BOTUVERÁ               0.28
##  2  2010 RS       SÃO JOSÉ DO HORTÊNCIO  0.28
##  3  2010 RS       ALTO FELIZ             0.29
##  4  2010 RS       SÃO VENDELINO          0.29
##  5  2010 RS       VALE REAL              0.29
##  6  2010 RS       SANTA MARIA DO HERVAL  0.3 
##  7  2010 RS       CAMPESTRE DA SERRA     0.31
##  8  2010 RS       TUPANDI                0.31
##  9  2010 MG       Córrego Fundo          0.32
## 10  2010 SC       SANTA ROSA DE LIMA     0.32
## # … with 16,676 more rows

pipe

É comum fazer mais de uma operação em sequência. Por exemplo:
selecionar colunas, e depois ordenar!

Objetivo: gerar uma base que tem as colunas referentes ao ano, sigla
da UF, nome do município e gini. Essa base deve estar ordenada por ano e
gini.

# jeito 1
tabela_pnud <- select(dados_pnud, ano, uf_sigla, muni_nm, gini)
arrange(tabela_pnud, desc(ano), gini)

## # A tibble: 16,686 × 4
##      ano uf_sigla muni_nm                gini
##    <dbl> <chr>    <chr>                 <dbl>
##  1  2010 SC       BOTUVERÁ               0.28
##  2  2010 RS       SÃO JOSÉ DO HORTÊNCIO  0.28
##  3  2010 RS       ALTO FELIZ             0.29
##  4  2010 RS       SÃO VENDELINO          0.29
##  5  2010 RS       VALE REAL              0.29
##  6  2010 RS       SANTA MARIA DO HERVAL  0.3 
##  7  2010 RS       CAMPESTRE DA SERRA     0.31
##  8  2010 RS       TUPANDI                0.31
##  9  2010 MG       Córrego Fundo          0.32
## 10  2010 SC       SANTA ROSA DE LIMA     0.32
## # … with 16,676 more rows

# jeito 2
arrange(select(dados_pnud, ano, uf_sigla, muni_nm, gini),
        desc(ano), gini)

## # A tibble: 16,686 × 4
##      ano uf_sigla muni_nm                gini
##    <dbl> <chr>    <chr>                 <dbl>
##  1  2010 SC       BOTUVERÁ               0.28
##  2  2010 RS       SÃO JOSÉ DO HORTÊNCIO  0.28
##  3  2010 RS       ALTO FELIZ             0.29
##  4  2010 RS       SÃO VENDELINO          0.29
##  5  2010 RS       VALE REAL              0.29
##  6  2010 RS       SANTA MARIA DO HERVAL  0.3 
##  7  2010 RS       CAMPESTRE DA SERRA     0.31
##  8  2010 RS       TUPANDI                0.31
##  9  2010 MG       Córrego Fundo          0.32
## 10  2010 SC       SANTA ROSA DE LIMA     0.32
## # … with 16,676 more rows
…
%>% é a versão do tidyverse. Precisa rodar
library(tidyverse) ou library(magrittr)
antes.

Atalho: CTRL + SHIFT + M

# library(tidyverse)
# library(magrittr)

select(dados_pnud, ano, uf_sigla, muni_nm, gini) %>% 
arrange(desc(ano), gini)

## # A tibble: 16,686 × 4
##      ano uf_sigla muni_nm                gini
##    <dbl> <chr>    <chr>                 <dbl>
##  1  2010 SC       BOTUVERÁ               0.28
##  2  2010 RS       SÃO JOSÉ DO HORTÊNCIO  0.28
##  3  2010 RS       ALTO FELIZ             0.29
##  4  2010 RS       SÃO VENDELINO          0.29
##  5  2010 RS       VALE REAL              0.29
##  6  2010 RS       SANTA MARIA DO HERVAL  0.3 
##  7  2010 RS       CAMPESTRE DA SERRA     0.31
##  8  2010 RS       TUPANDI                0.31
##  9  2010 MG       Córrego Fundo          0.32
## 10  2010 SC       SANTA ROSA DE LIMA     0.32
## # … with 16,676 more rows

dados_pnud %>% 
  select(ano, uf_sigla, muni_nm, gini) %>% 
  arrange(desc(ano), gini)

## # A tibble: 16,686 × 4
##      ano uf_sigla muni_nm                gini
##    <dbl> <chr>    <chr>                 <dbl>
##  1  2010 SC       BOTUVERÁ               0.28
##  2  2010 RS       SÃO JOSÉ DO HORTÊNCIO  0.28
##  3  2010 RS       ALTO FELIZ             0.29
##  4  2010 RS       SÃO VENDELINO          0.29
##  5  2010 RS       VALE REAL              0.29
##  6  2010 RS       SANTA MARIA DO HERVAL  0.3 
##  7  2010 RS       CAMPESTRE DA SERRA     0.31
##  8  2010 RS       TUPANDI                0.31
##  9  2010 MG       Córrego Fundo          0.32
## 10  2010 SC       SANTA ROSA DE LIMA     0.32
## # … with 16,676 more rows
…
A base dados_pnud possui informações referentes à quais UFs?

dados_pnud |> 
  distinct(uf_sigla) |> 
  arrange(uf_sigla)

## # A tibble: 27 × 1
##    uf_sigla
##    <chr>   
##  1 AC      
##  2 AL      
##  3 AM      
##  4 AP      
##  5 BA      
##  6 CE      
##  7 DF      
##  8 ES      
##  9 GO      
## 10 MA      
## # … with 17 more rows
…
Podemos modificar colunas e criar novas colunas usando a função
mutate().

Exemplo: vamos modificar a coluna pop para que ela armazene a
população em milhares.

mutate(nome_da_coluna_que_queremos_criar =
operacao_que_queremos_fazer)

# - Exemplo: vamos criar uma nova coluna chamada `pop_milhares` para que ela armazene a população em milhares.

dados_pnud |> 
  mutate(pop_milhares = pop/1000)

## # A tibble: 16,686 × 16
##      ano muni_id muni_nm   uf_sigla regiao_nm  idhm idhm_e idhm_l idhm_r espvida
##    <dbl>   <dbl> <chr>     <chr>    <chr>     <dbl>  <dbl>  <dbl>  <dbl>   <dbl>
##  1  1991 1100015 ALTA FLO… RO       Norte     0.329  0.112  0.617  0.516    62.0
##  2  1991 1100023 ARIQUEMES RO       Norte     0.432  0.199  0.684  0.593    66.0
##  3  1991 1100031 CABIXI    RO       Norte     0.309  0.108  0.636  0.43     63.2
##  4  1991 1100049 CACOAL    RO       Norte     0.407  0.171  0.667  0.593    65.0
##  5  1991 1100056 CEREJEIR… RO       Norte     0.386  0.167  0.629  0.547    62.7
##  6  1991 1100064 COLORADO… RO       Norte     0.376  0.151  0.658  0.536    64.5
##  7  1991 1100072 CORUMBIA… RO       Norte     0.203  0.039  0.572  0.373    59.3
##  8  1991 1100080 COSTA MA… RO       Norte     0.425  0.22   0.629  0.553    62.8
##  9  1991 1100098 ESPIGÃO … RO       Norte     0.388  0.159  0.653  0.561    64.2
## 10  1991 1100106 GUAJARÁ-… RO       Norte     0.468  0.247  0.662  0.625    64.7
## # … with 16,676 more rows, and 6 more variables: rdpc <dbl>, gini <dbl>,
## #   pop <dbl>, lat <dbl>, lon <dbl>, pop_milhares <dbl>

# - Como arredondar? Função `round()`. Vamos experimentar arredondar a coluna de esperança de vida para ter apenas 1 casa decimal.         
dados_pnud |> 
  mutate(pop_milhares = pop/1000,
         pop_milhares = round(pop_milhares, 1))

## # A tibble: 16,686 × 16
##      ano muni_id muni_nm   uf_sigla regiao_nm  idhm idhm_e idhm_l idhm_r espvida
##    <dbl>   <dbl> <chr>     <chr>    <chr>     <dbl>  <dbl>  <dbl>  <dbl>   <dbl>
##  1  1991 1100015 ALTA FLO… RO       Norte     0.329  0.112  0.617  0.516    62.0
##  2  1991 1100023 ARIQUEMES RO       Norte     0.432  0.199  0.684  0.593    66.0
##  3  1991 1100031 CABIXI    RO       Norte     0.309  0.108  0.636  0.43     63.2
##  4  1991 1100049 CACOAL    RO       Norte     0.407  0.171  0.667  0.593    65.0
##  5  1991 1100056 CEREJEIR… RO       Norte     0.386  0.167  0.629  0.547    62.7
##  6  1991 1100064 COLORADO… RO       Norte     0.376  0.151  0.658  0.536    64.5
##  7  1991 1100072 CORUMBIA… RO       Norte     0.203  0.039  0.572  0.373    59.3
##  8  1991 1100080 COSTA MA… RO       Norte     0.425  0.22   0.629  0.553    62.8
##  9  1991 1100098 ESPIGÃO … RO       Norte     0.388  0.159  0.653  0.561    64.2
## 10  1991 1100106 GUAJARÁ-… RO       Norte     0.468  0.247  0.662  0.625    64.7
## # … with 16,676 more rows, and 6 more variables: rdpc <dbl>, gini <dbl>,
## #   pop <dbl>, lat <dbl>, lon <dbl>, pop_milhares <dbl>
…
